[
  {
    "request": {
      "body": "",
      "headers": {
        "Accept": "application/json",
        "Authorization": "Bearer supersecretaccesstoken",
        "Content-Type": "application/json"
      },
      "method": "get",
      "request_body": "",
      "url": "https://data.castoredc.com/api/study/AFE56D62-0797-406B-9949-DD8DC65D6A75/record-progress/steps"
    },
    "response": {
      "binary": false,
      "body": "{\"_links\":{\"self\":{\"href\":\"https:\\/\\/data.castoredc.com\\/api\\/study\\/AFE56D62-0797-406B-9949-DD8DC65D6A75\\/record-progress\\/steps?page=1\"},\"first\":{\"href\":\"https:\\/\\/data.castoredc.com\\/api\\/study\\/AFE56D62-0797-406B-9949-DD8DC65D6A75\\/record-progress\\/steps\"},\"last\":{\"href\":\"https:\\/\\/data.castoredc.com\\/api\\/study\\/AFE56D62-0797-406B-9949-DD8DC65D6A75\\/record-progress\\/steps?page=21\"},\"next\":{\"href\":\"https:\\/\\/data.castoredc.com\\/api\\/study\\/AFE56D62-0797-406B-9949-DD8DC65D6A75\\/record-progress\\/steps?page=2\"}},\"_embedded\":{\"records\":[{\"record_id\":\"000001\",\"steps\":[{\"step_id\":\"494D8D96-9607-40C6-B4E9-CAFF4A55B16C\",\"complete\":0,\"sdv\":false,\"locked\":false,\"signed\":false},{\"step_id\":\"0EB1BFD1-BF99-4FA0-8FC5-A3ED7F81510C\",\"complete\":0,\"sdv\":false,\"locked\":false,\"signed\":false},{\"step_id\":\"F30F5553-CFFF-4265-A423-20765DEB366E\",\"complete\":0,\"sdv\":false,\"locked\":false,\"signed\":false},{\"step_id\":\"3334E775-17B5-49ED-8D91-6C34DE3A07F5\",\"complete\":0,\"sdv\":false,\"locked\":false,\"signed\":false},{\"step_id\":\"D7AFCBA2-86E0-4312-B7D2-68894CE7E421\",\"complete\":0,\"sdv\":false,\"locked\":false,\"signed\":false},{\"step_id\":\"0D221733-7D1E-4920-8475-DA60CF4B989C\",\"complete\":0,\"sdv\":false,\"locked\":false,\"signed\":false},{\"step_id\":\"6784D9FF-F359-4E47-B6AF-9CE44B947759\",\"complete\":0,\"sdv\":false,\"locked\":false,\"signed\":false}],\"_links\":{\"self\":{\"href\":\"https:\\/\\/data.castoredc.com\\/api\\/study\\/AFE56D62-0797-406B-9949-DD8DC65D6A75\\/record-progress\\/steps\"}}},{\"record_id\":\"000002\",\"steps\":[{\"step_id\":\"D7AFCBA2-86E0-4312-B7D2-68894CE7E421\",\"complete\":0,\"sdv\":false,\"locked\":false,\"signed\":false},{\"step_id\":\"0D221733-7D1E-4920-8475-DA60CF4B989C\",\"complete\":0,\"sdv\":false,\"locked\":false,\"signed\":false},{\"step_id\":\"6784D9FF-F359-4E47-B6AF-9CE44B947759\",\"complete\":0,\"sdv\":false,\"locked\":false,\"signed\":false},{\"step_id\":\"494D8D96-9607-40C6-B4E9-CAFF4A55B16C\",\"complete\":0,\"sdv\":false,\"locked\":false,\"signed\":false},{\"step_id\":\"0EB1BFD1-BF99-4FA0-8FC5-A3ED7F81510C\",\"complete\":0,\"sdv\":false,\"locked\":false,\"signed\":false},{\"step_id\":\"F30F5553-CFFF-4265-A423-20765DEB366E\",\"complete\":0,\"sdv\":false,\"locked\":false,\"signed\":false},{\"step_id\":\"3334E775-17B5-49ED-8D91-6C34DE3A07F5\",\"complete\":0,\"sdv\":false,\"locked\":false,\"signed\":false}],\"_links\":{\"self\":{\"href\":\"https:\\/\\/data.castoredc.com\\/api\\/study\\/AFE56D62-0797-406B-9949-DD8DC65D6A75\\/record-progress\\/steps\"}}},{\"record_id\":\"000003\",\"steps\":[{\"step_id\":\"494D8D96-9607-40C6-B4E9-CAFF4A55B16C\",\"complete\":0,\"sdv\":false,\"locked\":false,\"signed\":false},{\"step_id\":\"0EB1BFD1-BF99-4FA0-8FC5-A3ED7F81510C\",\"complete\":0,\"sdv\":false,\"locked\":false,\"signed\":false},{\"step_id\":\"F30F5553-CFFF-4265-A423-20765DEB366E\",\"complete\":0,\"sdv\":false,\"locked\":false,\"signed\":false},{\"step_id\":\"3334E775-17B5-49ED-8D91-6C34DE3A07F5\",\"complete\":0,\"sdv\":false,\"locked\":false,\"signed\":false},{\"step_id\":\"D7AFCBA2-86E0-4312-B7D2-68894CE7E421\",\"complete\":0,\"sdv\":false,\"locked\":false,\"signed\":false},{\"step_id\":\"0D221733-7D1E-4920-8475-DA60CF4B989C\",\"complete\":0,\"sdv\":false,\"locked\":false,\"signed\":false},{\"step_id\":\"6784D9FF-F359-4E47-B6AF-9CE44B947759\",\"complete\":0,\"sdv\":false,\"locked\":false,\"signed\":false}],\"_links\":{\"self\":{\"href\":\"https:\\/\\/data.castoredc.com\\/api\\/study\\/AFE56D62-0797-406B-9949-DD8DC65D6A75\\/record-progress\\/steps\"}}},{\"record_id\":\"000004\",\"steps\":[{\"step_id\":\"D7AFCBA2-86E0-4312-B7D2-68894CE7E421\",\"complete\":0,\"sdv\":false,\"locked\":false,\"signed\":false},{\"step_id\":\"0D221733-7D1E-4920-8475-DA60CF4B989C\",\"complete\":0,\"sdv\":false,\"locked\":false,\"signed\":false},{\"step_id\":\"6784D9FF-F359-4E47-B6AF-9CE44B947759\",\"complete\":0,\"sdv\":false,\"locked\":false,\"signed\":false},{\"step_id\":\"494D8D96-9607-40C6-B4E9-CAFF4A55B16C\",\"complete\":0,\"sdv\":false,\"locked\":false,\"signed\":false},{\"step_id\":\"0EB1BFD1-BF99-4FA0-8FC5-A3ED7F81510C\",\"complete\":0,\"sdv\":false,\"locked\":false,\"signed\":false},{\"step_id\":\"F30F5553-CFFF-4265-A423-20765DEB366E\",\"complete\":0,\"sdv\":false,\"locked\":false,\"signed\":false},{\"step_id\":\"3334E775-17B5-49ED-8D91-6C34DE3A07F5\",\"complete\":0,\"sdv\":false,\"locked\":false,\"signed\":false}],\"_links\":{\"self\":{\"href\":\"https:\\/\\/data.castoredc.com\\/api\\/study\\/AFE56D62-0797-406B-9949-DD8DC65D6A75\\/record-progress\\/steps\"}}},{\"record_id\":\"110001\",\"steps\":[{\"step_id\":\"494D8D96-9607-40C6-B4E9-CAFF4A55B16C\",\"complete\":2,\"sdv\":false,\"locked\":false,\"signed\":false},{\"step_id\":\"0EB1BFD1-BF99-4FA0-8FC5-A3ED7F81510C\",\"complete\":2,\"sdv\":false,\"locked\":false,\"signed\":false},{\"step_id\":\"F30F5553-CFFF-4265-A423-20765DEB366E\",\"complete\":0,\"sdv\":false,\"locked\":false,\"signed\":false},{\"step_id\":\"3334E775-17B5-49ED-8D91-6C34DE3A07F5\",\"complete\":0,\"sdv\":false,\"locked\":false,\"signed\":false},{\"step_id\":\"D7AFCBA2-86E0-4312-B7D2-68894CE7E421\",\"complete\":0,\"sdv\":false,\"locked\":false,\"signed\":false},{\"step_id\":\"0D221733-7D1E-4920-8475-DA60CF4B989C\",\"complete\":0,\"sdv\":false,\"locked\":false,\"signed\":false},{\"step_id\":\"6784D9FF-F359-4E47-B6AF-9CE44B947759\",\"complete\":0,\"sdv\":false,\"locked\":false,\"signed\":false}],\"_links\":{\"self\":{\"href\":\"https:\\/\\/data.castoredc.com\\/api\\/study\\/AFE56D62-0797-406B-9949-DD8DC65D6A75\\/record-progress\\/steps\"}}},{\"record_id\":\"110002\",\"steps\":[{\"step_id\":\"D7AFCBA2-86E0-4312-B7D2-68894CE7E421\",\"complete\":0,\"sdv\":false,\"locked\":false,\"signed\":false},{\"step_id\":\"0D221733-7D1E-4920-8475-DA60CF4B989C\",\"complete\":0,\"sdv\":false,\"locked\":false,\"signed\":false},{\"step_id\":\"6784D9FF-F359-4E47-B6AF-9CE44B947759\",\"complete\":0,\"sdv\":false,\"locked\":false,\"signed\":false},{\"step_id\":\"494D8D96-9607-40C6-B4E9-CAFF4A55B16C\",\"complete\":2,\"sdv\":false,\"locked\":false,\"signed\":false},{\"step_id\":\"0EB1BFD1-BF99-4FA0-8FC5-A3ED7F81510C\",\"complete\":0,\"sdv\":false,\"locked\":false,\"signed\":false},{\"step_id\":\"F30F5553-CFFF-4265-A423-20765DEB366E\",\"complete\":0,\"sdv\":false,\"locked\":false,\"signed\":false},{\"step_id\":\"3334E775-17B5-49ED-8D91-6C34DE3A07F5\",\"complete\":0,\"sdv\":false,\"locked\":false,\"signed\":false}],\"_links\":{\"self\":{\"href\":\"https:\\/\\/data.castoredc.com\\/api\\/study\\/AFE56D62-0797-406B-9949-DD8DC65D6A75\\/record-progress\\/steps\"}}},{\"record_id\":\"110003\",\"steps\":[{\"step_id\":\"494D8D96-9607-40C6-B4E9-CAFF4A55B16C\",\"complete\":0,\"sdv\":false,\"locked\":false,\"signed\":false},{\"step_id\":\"0EB1BFD1-BF99-4FA0-8FC5-A3ED7F81510C\",\"complete\":0,\"sdv\":false,\"locked\":false,\"signed\":false},{\"step_id\":\"F30F5553-CFFF-4265-A423-20765DEB366E\",\"complete\":0,\"sdv\":false,\"locked\":false,\"signed\":false},{\"step_id\":\"3334E775-17B5-49ED-8D91-6C34DE3A07F5\",\"complete\":0,\"sdv\":false,\"locked\":false,\"signed\":false},{\"step_id\":\"D7AFCBA2-86E0-4312-B7D2-68894CE7E421\",\"complete\":0,\"sdv\":false,\"locked\":false,\"signed\":false},{\"step_id\":\"0D221733-7D1E-4920-8475-DA60CF4B989C\",\"complete\":0,\"sdv\":false,\"locked\":false,\"signed\":false},{\"step_id\":\"6784D9FF-F359-4E47-B6AF-9CE44B947759\",\"complete\":0,\"sdv\":false,\"locked\":false,\"signed\":false}],\"_links\":{\"self\":{\"href\":\"https:\\/\\/data.castoredc.com\\/api\\/study\\/AFE56D62-0797-406B-9949-DD8DC65D6A75\\/record-progress\\/steps\"}}},{\"record_id\":\"110004\",\"steps\":[{\"step_id\":\"D7AFCBA2-86E0-4312-B7D2-68894CE7E421\",\"complete\":0,\"sdv\":false,\"locked\":false,\"signed\":false},{\"step_id\":\"0D221733-7D1E-4920-8475-DA60CF4B989C\",\"complete\":0,\"sdv\":false,\"locked\":false,\"signed\":false},{\"step_id\":\"6784D9FF-F359-4E47-B6AF-9CE44B947759\",\"complete\":0,\"sdv\":false,\"locked\":false,\"signed\":false},{\"step_id\":\"494D8D96-9607-40C6-B4E9-CAFF4A55B16C\",\"complete\":0,\"sdv\":false,\"locked\":false,\"signed\":false},{\"step_id\":\"0EB1BFD1-BF99-4FA0-8FC5-A3ED7F81510C\",\"complete\":0,\"sdv\":false,\"locked\":false,\"signed\":false},{\"step_id\":\"F30F5553-CFFF-4265-A423-20765DEB366E\",\"complete\":0,\"sdv\":false,\"locked\":false,\"signed\":false},{\"step_id\":\"3334E775-17B5-49ED-8D91-6C34DE3A07F5\",\"complete\":0,\"sdv\":false,\"locked\":false,\"signed\":false}],\"_links\":{\"self\":{\"href\":\"https:\\/\\/data.castoredc.com\\/api\\/study\\/AFE56D62-0797-406B-9949-DD8DC65D6A75\\/record-progress\\/steps\"}}},{\"record_id\":\"110005\",\"steps\":[{\"step_id\":\"494D8D96-9607-40C6-B4E9-CAFF4A55B16C\",\"complete\":0,\"sdv\":false,\"locked\":false,\"signed\":false},{\"step_id\":\"0EB1BFD1-BF99-4FA0-8FC5-A3ED7F81510C\",\"complete\":0,\"sdv\":false,\"locked\":false,\"signed\":false},{\"step_id\":\"F30F5553-CFFF-4265-A423-20765DEB366E\",\"complete\":0,\"sdv\":false,\"locked\":false,\"signed\":false},{\"step_id\":\"3334E775-17B5-49ED-8D91-6C34DE3A07F5\",\"complete\":0,\"sdv\":false,\"locked\":false,\"signed\":false},{\"step_id\":\"D7AFCBA2-86E0-4312-B7D2-68894CE7E421\",\"complete\":0,\"sdv\":false,\"locked\":false,\"signed\":false},{\"step_id\":\"0D221733-7D1E-4920-8475-DA60CF4B989C\",\"complete\":0,\"sdv\":false,\"locked\":false,\"signed\":false},{\"step_id\":\"6784D9FF-F359-4E47-B6AF-9CE44B947759\",\"complete\":0,\"sdv\":false,\"locked\":false,\"signed\":false}],\"_links\":{\"self\":{\"href\":\"https:\\/\\/data.castoredc.com\\/api\\/study\\/AFE56D62-0797-406B-9949-DD8DC65D6A75\\/record-progress\\/steps\"}}},{\"record_id\":\"110006\",\"steps\":[{\"step_id\":\"D7AFCBA2-86E0-4312-B7D2-68894CE7E421\",\"complete\":0,\"sdv\":false,\"locked\":false,\"signed\":false},{\"step_id\":\"0D221733-7D1E-4920-8475-DA60CF4B989C\",\"complete\":0,\"sdv\":false,\"locked\":false,\"signed\":false},{\"step_id\":\"6784D9FF-F359-4E47-B6AF-9CE44B947759\",\"complete\":0,\"sdv\":false,\"locked\":false,\"signed\":false},{\"step_id\":\"494D8D96-9607-40C6-B4E9-CAFF4A55B16C\",\"complete\":0,\"sdv\":false,\"locked\":false,\"signed\":false},{\"step_id\":\"0EB1BFD1-BF99-4FA0-8FC5-A3ED7F81510C\",\"complete\":0,\"sdv\":false,\"locked\":false,\"signed\":false},{\"step_id\":\"F30F5553-CFFF-4265-A423-20765DEB366E\",\"complete\":0,\"sdv\":false,\"locked\":false,\"signed\":false},{\"step_id\":\"3334E775-17B5-49ED-8D91-6C34DE3A07F5\",\"complete\":0,\"sdv\":false,\"locked\":false,\"signed\":false}],\"_links\":{\"self\":{\"href\":\"https:\\/\\/data.castoredc.com\\/api\\/study\\/AFE56D62-0797-406B-9949-DD8DC65D6A75\\/record-progress\\/steps\"}}},{\"record_id\":\"110007\",\"steps\":[{\"step_id\":\"494D8D96-9607-40C6-B4E9-CAFF4A55B16C\",\"complete\":0,\"sdv\":false,\"locked\":false,\"signed\":false},{\"step_id\":\"0EB1BFD1-BF99-4FA0-8FC5-A3ED7F81510C\",\"complete\":0,\"sdv\":false,\"locked\":false,\"signed\":false},{\"step_id\":\"F30F5553-CFFF-4265-A423-20765DEB366E\",\"complete\":0,\"sdv\":false,\"locked\":false,\"signed\":false},{\"step_id\":\"3334E775-17B5-49ED-8D91-6C34DE3A07F5\",\"complete\":0,\"sdv\":false,\"locked\":false,\"signed\":false},{\"step_id\":\"D7AFCBA2-86E0-4312-B7D2-68894CE7E421\",\"complete\":0,\"sdv\":false,\"locked\":false,\"signed\":false},{\"step_id\":\"0D221733-7D1E-4920-8475-DA60CF4B989C\",\"complete\":0,\"sdv\":false,\"locked\":false,\"signed\":false},{\"step_id\":\"6784D9FF-F359-4E47-B6AF-9CE44B947759\",\"complete\":0,\"sdv\":false,\"locked\":false,\"signed\":false}],\"_links\":{\"self\":{\"href\":\"https:\\/\\/data.castoredc.com\\/api\\/study\\/AFE56D62-0797-406B-9949-DD8DC65D6A75\\/record-progress\\/steps\"}}},{\"record_id\":\"110008\",\"steps\":[{\"step_id\":\"D7AFCBA2-86E0-4312-B7D2-68894CE7E421\",\"complete\":0,\"sdv\":false,\"locked\":false,\"signed\":false},{\"step_id\":\"0D221733-7D1E-4920-8475-DA60CF4B989C\",\"complete\":0,\"sdv\":false,\"locked\":false,\"signed\":false},{\"step_id\":\"6784D9FF-F359-4E47-B6AF-9CE44B947759\",\"complete\":0,\"sdv\":false,\"locked\":false,\"signed\":false},{\"step_id\":\"494D8D96-9607-40C6-B4E9-CAFF4A55B16C\",\"complete\":0,\"sdv\":false,\"locked\":false,\"signed\":false},{\"step_id\":\"0EB1BFD1-BF99-4FA0-8FC5-A3ED7F81510C\",\"complete\":0,\"sdv\":false,\"locked\":false,\"signed\":false},{\"step_id\":\"F30F5553-CFFF-4265-A423-20765DEB366E\",\"complete\":0,\"sdv\":false,\"locked\":false,\"signed\":false},{\"step_id\":\"3334E775-17B5-49ED-8D91-6C34DE3A07F5\",\"complete\":0,\"sdv\":false,\"locked\":false,\"signed\":false}],\"_links\":{\"self\":{\"href\":\"https:\\/\\/data.castoredc.com\\/api\\/study\\/AFE56D62-0797-406B-9949-DD8DC65D6A75\\/record-progress\\/steps\"}}},{\"record_id\":\"110009\",\"steps\":[{\"step_id\":\"494D8D96-9607-40C6-B4E9-CAFF4A55B16C\",\"complete\":0,\"sdv\":false,\"locked\":false,\"signed\":false},{\"step_id\":\"0EB1BFD1-BF99-4FA0-8FC5-A3ED7F81510C\",\"complete\":0,\"sdv\":false,\"locked\":false,\"signed\":false},{\"step_id\":\"F30F5553-CFFF-4265-A423-20765DEB366E\",\"complete\":0,\"sdv\":false,\"locked\":false,\"signed\":false},{\"step_id\":\"3334E775-17B5-49ED-8D91-6C34DE3A07F5\",\"complete\":0,\"sdv\":false,\"locked\":false,\"signed\":false},{\"step_id\":\"D7AFCBA2-86E0-4312-B7D2-68894CE7E421\",\"complete\":0,\"sdv\":false,\"locked\":false,\"signed\":false},{\"step_id\":\"0D221733-7D1E-4920-8475-DA60CF4B989C\",\"complete\":0,\"sdv\":false,\"locked\":false,\"signed\":false},{\"step_id\":\"6784D9FF-F359-4E47-B6AF-9CE44B947759\",\"complete\":0,\"sdv\":false,\"locked\":false,\"signed\":false}],\"_links\":{\"self\":{\"href\":\"https:\\/\\/data.castoredc.com\\/api\\/study\\/AFE56D62-0797-406B-9949-DD8DC65D6A75\\/record-progress\\/steps\"}}},{\"record_id\":\"110010\",\"steps\":[{\"step_id\":\"D7AFCBA2-86E0-4312-B7D2-68894CE7E421\",\"complete\":0,\"sdv\":false,\"locked\":false,\"signed\":false},{\"step_id\":\"0D221733-7D1E-4920-8475-DA60CF4B989C\",\"complete\":0,\"sdv\":false,\"locked\":false,\"signed\":false},{\"step_id\":\"6784D9FF-F359-4E47-B6AF-9CE44B947759\",\"complete\":0,\"sdv\":false,\"locked\":false,\"signed\":false},{\"step_id\":\"494D8D96-9607-40C6-B4E9-CAFF4A55B16C\",\"complete\":0,\"sdv\":false,\"locked\":false,\"signed\":false},{\"step_id\":\"0EB1BFD1-BF99-4FA0-8FC5-A3ED7F81510C\",\"complete\":0,\"sdv\":false,\"locked\":false,\"signed\":false},{\"step_id\":\"F30F5553-CFFF-4265-A423-20765DEB366E\",\"complete\":0,\"sdv\":false,\"locked\":false,\"signed\":false},{\"step_id\":\"3334E775-17B5-49ED-8D91-6C34DE3A07F5\",\"complete\":0,\"sdv\":false,\"locked\":false,\"signed\":false}],\"_links\":{\"self\":{\"href\":\"https:\\/\\/data.castoredc.com\\/api\\/study\\/AFE56D62-0797-406B-9949-DD8DC65D6A75\\/record-progress\\/steps\"}}},{\"record_id\":\"110011\",\"steps\":[{\"step_id\":\"494D8D96-9607-40C6-B4E9-CAFF4A55B16C\",\"complete\":0,\"sdv\":false,\"locked\":false,\"signed\":false},{\"step_id\":\"0EB1BFD1-BF99-4FA0-8FC5-A3ED7F81510C\",\"complete\":0,\"sdv\":false,\"locked\":false,\"signed\":false},{\"step_id\":\"F30F5553-CFFF-4265-A423-20765DEB366E\",\"complete\":0,\"sdv\":false,\"locked\":false,\"signed\":false},{\"step_id\":\"3334E775-17B5-49ED-8D91-6C34DE3A07F5\",\"complete\":0,\"sdv\":false,\"locked\":false,\"signed\":false},{\"step_id\":\"D7AFCBA2-86E0-4312-B7D2-68894CE7E421\",\"complete\":0,\"sdv\":false,\"locked\":false,\"signed\":false},{\"step_id\":\"0D221733-7D1E-4920-8475-DA60CF4B989C\",\"complete\":0,\"sdv\":false,\"locked\":false,\"signed\":false},{\"step_id\":\"6784D9FF-F359-4E47-B6AF-9CE44B947759\",\"complete\":0,\"sdv\":false,\"locked\":false,\"signed\":false}],\"_links\":{\"self\":{\"href\":\"https:\\/\\/data.castoredc.com\\/api\\/study\\/AFE56D62-0797-406B-9949-DD8DC65D6A75\\/record-progress\\/steps\"}}},{\"record_id\":\"110012\",\"steps\":[{\"step_id\":\"D7AFCBA2-86E0-4312-B7D2-68894CE7E421\",\"complete\":0,\"sdv\":false,\"locked\":false,\"signed\":false},{\"step_id\":\"0D221733-7D1E-4920-8475-DA60CF4B989C\",\"complete\":0,\"sdv\":false,\"locked\":false,\"signed\":false},{\"step_id\":\"6784D9FF-F359-4E47-B6AF-9CE44B947759\",\"complete\":0,\"sdv\":false,\"locked\":false,\"signed\":false},{\"step_id\":\"494D8D96-9607-40C6-B4E9-CAFF4A55B16C\",\"complete\":0,\"sdv\":false,\"locked\":false,\"signed\":false},{\"step_id\":\"0EB1BFD1-BF99-4FA0-8FC5-A3ED7F81510C\",\"complete\":0,\"sdv\":false,\"locked\":false,\"signed\":false},{\"step_id\":\"F30F5553-CFFF-4265-A423-20765DEB366E\",\"complete\":0,\"sdv\":false,\"locked\":false,\"signed\":false},{\"step_id\":\"3334E775-17B5-49ED-8D91-6C34DE3A07F5\",\"complete\":0,\"sdv\":false,\"locked\":false,\"signed\":false}],\"_links\":{\"self\":{\"href\":\"https:\\/\\/data.castoredc.com\\/api\\/study\\/AFE56D62-0797-406B-9949-DD8DC65D6A75\\/record-progress\\/steps\"}}},{\"record_id\":\"110013\",\"steps\":[{\"step_id\":\"494D8D96-9607-40C6-B4E9-CAFF4A55B16C\",\"complete\":0,\"sdv\":false,\"locked\":false,\"signed\":false},{\"step_id\":\"0EB1BFD1-BF99-4FA0-8FC5-A3ED7F81510C\",\"complete\":0,\"sdv\":false,\"locked\":false,\"signed\":false},{\"step_id\":\"F30F5553-CFFF-4265-A423-20765DEB366E\",\"complete\":0,\"sdv\":false,\"locked\":false,\"signed\":false},{\"step_id\":\"3334E775-17B5-49ED-8D91-6C34DE3A07F5\",\"complete\":0,\"sdv\":false,\"locked\":false,\"signed\":false},{\"step_id\":\"D7AFCBA2-86E0-4312-B7D2-68894CE7E421\",\"complete\":0,\"sdv\":false,\"locked\":false,\"signed\":false},{\"step_id\":\"0D221733-7D1E-4920-8475-DA60CF4B989C\",\"complete\":0,\"sdv\":false,\"locked\":false,\"signed\":false},{\"step_id\":\"6784D9FF-F359-4E47-B6AF-9CE44B947759\",\"complete\":0,\"sdv\":false,\"locked\":false,\"signed\":false}],\"_links\":{\"self\":{\"href\":\"https:\\/\\/data.castoredc.com\\/api\\/study\\/AFE56D62-0797-406B-9949-DD8DC65D6A75\\/record-progress\\/steps\"}}},{\"record_id\":\"110014\",\"steps\":[{\"step_id\":\"D7AFCBA2-86E0-4312-B7D2-68894CE7E421\",\"complete\":0,\"sdv\":false,\"locked\":false,\"signed\":false},{\"step_id\":\"0D221733-7D1E-4920-8475-DA60CF4B989C\",\"complete\":0,\"sdv\":false,\"locked\":false,\"signed\":false},{\"step_id\":\"6784D9FF-F359-4E47-B6AF-9CE44B947759\",\"complete\":0,\"sdv\":false,\"locked\":false,\"signed\":false},{\"step_id\":\"494D8D96-9607-40C6-B4E9-CAFF4A55B16C\",\"complete\":0,\"sdv\":false,\"locked\":false,\"signed\":false},{\"step_id\":\"0EB1BFD1-BF99-4FA0-8FC5-A3ED7F81510C\",\"complete\":0,\"sdv\":false,\"locked\":false,\"signed\":false},{\"step_id\":\"F30F5553-CFFF-4265-A423-20765DEB366E\",\"complete\":0,\"sdv\":false,\"locked\":false,\"signed\":false},{\"step_id\":\"3334E775-17B5-49ED-8D91-6C34DE3A07F5\",\"complete\":0,\"sdv\":false,\"locked\":false,\"signed\":false}],\"_links\":{\"self\":{\"href\":\"https:\\/\\/data.castoredc.com\\/api\\/study\\/AFE56D62-0797-406B-9949-DD8DC65D6A75\\/record-progress\\/steps\"}}},{\"record_id\":\"110015\",\"steps\":[{\"step_id\":\"494D8D96-9607-40C6-B4E9-CAFF4A55B16C\",\"complete\":0,\"sdv\":false,\"locked\":false,\"signed\":false},{\"step_id\":\"0EB1BFD1-BF99-4FA0-8FC5-A3ED7F81510C\",\"complete\":0,\"sdv\":false,\"locked\":false,\"signed\":false},{\"step_id\":\"F30F5553-CFFF-4265-A423-20765DEB366E\",\"complete\":0,\"sdv\":false,\"locked\":false,\"signed\":false},{\"step_id\":\"3334E775-17B5-49ED-8D91-6C34DE3A07F5\",\"complete\":0,\"sdv\":false,\"locked\":false,\"signed\":false},{\"step_id\":\"D7AFCBA2-86E0-4312-B7D2-68894CE7E421\",\"complete\":0,\"sdv\":false,\"locked\":false,\"signed\":false},{\"step_id\":\"0D221733-7D1E-4920-8475-DA60CF4B989C\",\"complete\":0,\"sdv\":false,\"locked\":false,\"signed\":false},{\"step_id\":\"6784D9FF-F359-4E47-B6AF-9CE44B947759\",\"complete\":0,\"sdv\":false,\"locked\":false,\"signed\":false}],\"_links\":{\"self\":{\"href\":\"https:\\/\\/data.castoredc.com\\/api\\/study\\/AFE56D62-0797-406B-9949-DD8DC65D6A75\\/record-progress\\/steps\"}}},{\"record_id\":\"110016\",\"steps\":[{\"step_id\":\"D7AFCBA2-86E0-4312-B7D2-68894CE7E421\",\"complete\":0,\"sdv\":false,\"locked\":false,\"signed\":false},{\"step_id\":\"0D221733-7D1E-4920-8475-DA60CF4B989C\",\"complete\":0,\"sdv\":false,\"locked\":false,\"signed\":false},{\"step_id\":\"6784D9FF-F359-4E47-B6AF-9CE44B947759\",\"complete\":0,\"sdv\":false,\"locked\":false,\"signed\":false},{\"step_id\":\"494D8D96-9607-40C6-B4E9-CAFF4A55B16C\",\"complete\":0,\"sdv\":false,\"locked\":false,\"signed\":false},{\"step_id\":\"0EB1BFD1-BF99-4FA0-8FC5-A3ED7F81510C\",\"complete\":0,\"sdv\":false,\"locked\":false,\"signed\":false},{\"step_id\":\"F30F5553-CFFF-4265-A423-20765DEB366E\",\"complete\":0,\"sdv\":false,\"locked\":false,\"signed\":false},{\"step_id\":\"3334E775-17B5-49ED-8D91-6C34DE3A07F5\",\"complete\":0,\"sdv\":false,\"locked\":false,\"signed\":false}],\"_links\":{\"self\":{\"href\":\"https:\\/\\/data.castoredc.com\\/api\\/study\\/AFE56D62-0797-406B-9949-DD8DC65D6A75\\/record-progress\\/steps\"}}},{\"record_id\":\"110017\",\"steps\":[{\"step_id\":\"494D8D96-9607-40C6-B4E9-CAFF4A55B16C\",\"complete\":0,\"sdv\":false,\"locked\":false,\"signed\":false},{\"step_id\":\"0EB1BFD1-BF99-4FA0-8FC5-A3ED7F81510C\",\"complete\":0,\"sdv\":false,\"locked\":false,\"signed\":false},{\"step_id\":\"F30F5553-CFFF-4265-A423-20765DEB366E\",\"complete\":0,\"sdv\":false,\"locked\":false,\"signed\":false},{\"step_id\":\"3334E775-17B5-49ED-8D91-6C34DE3A07F5\",\"complete\":0,\"sdv\":false,\"locked\":false,\"signed\":false},{\"step_id\":\"D7AFCBA2-86E0-4312-B7D2-68894CE7E421\",\"complete\":0,\"sdv\":false,\"locked\":false,\"signed\":false},{\"step_id\":\"0D221733-7D1E-4920-8475-DA60CF4B989C\",\"complete\":0,\"sdv\":false,\"locked\":false,\"signed\":false},{\"step_id\":\"6784D9FF-F359-4E47-B6AF-9CE44B947759\",\"complete\":0,\"sdv\":false,\"locked\":false,\"signed\":false}],\"_links\":{\"self\":{\"href\":\"https:\\/\\/data.castoredc.com\\/api\\/study\\/AFE56D62-0797-406B-9949-DD8DC65D6A75\\/record-progress\\/steps\"}}},{\"record_id\":\"110018\",\"steps\":[{\"step_id\":\"D7AFCBA2-86E0-4312-B7D2-68894CE7E421\",\"complete\":0,\"sdv\":false,\"locked\":false,\"signed\":false},{\"step_id\":\"0D221733-7D1E-4920-8475-DA60CF4B989C\",\"complete\":0,\"sdv\":false,\"locked\":false,\"signed\":false},{\"step_id\":\"6784D9FF-F359-4E47-B6AF-9CE44B947759\",\"complete\":0,\"sdv\":false,\"locked\":false,\"signed\":false},{\"step_id\":\"494D8D96-9607-40C6-B4E9-CAFF4A55B16C\",\"complete\":0,\"sdv\":false,\"locked\":false,\"signed\":false},{\"step_id\":\"0EB1BFD1-BF99-4FA0-8FC5-A3ED7F81510C\",\"complete\":0,\"sdv\":false,\"locked\":false,\"signed\":false},{\"step_id\":\"F30F5553-CFFF-4265-A423-20765DEB366E\",\"complete\":0,\"sdv\":false,\"locked\":false,\"signed\":false},{\"step_id\":\"3334E775-17B5-49ED-8D91-6C34DE3A07F5\",\"complete\":0,\"sdv\":false,\"locked\":false,\"signed\":false}],\"_links\":{\"self\":{\"href\":\"https:\\/\\/data.castoredc.com\\/api\\/study\\/AFE56D62-0797-406B-9949-DD8DC65D6A75\\/record-progress\\/steps\"}}},{\"record_id\":\"110019\",\"steps\":[{\"step_id\":\"494D8D96-9607-40C6-B4E9-CAFF4A55B16C\",\"complete\":0,\"sdv\":false,\"locked\":false,\"signed\":false},{\"step_id\":\"0EB1BFD1-BF99-4FA0-8FC5-A3ED7F81510C\",\"complete\":0,\"sdv\":false,\"locked\":false,\"signed\":false},{\"step_id\":\"F30F5553-CFFF-4265-A423-20765DEB366E\",\"complete\":0,\"sdv\":false,\"locked\":false,\"signed\":false},{\"step_id\":\"3334E775-17B5-49ED-8D91-6C34DE3A07F5\",\"complete\":0,\"sdv\":false,\"locked\":false,\"signed\":false},{\"step_id\":\"D7AFCBA2-86E0-4312-B7D2-68894CE7E421\",\"complete\":0,\"sdv\":false,\"locked\":false,\"signed\":false},{\"step_id\":\"0D221733-7D1E-4920-8475-DA60CF4B989C\",\"complete\":0,\"sdv\":false,\"locked\":false,\"signed\":false},{\"step_id\":\"6784D9FF-F359-4E47-B6AF-9CE44B947759\",\"complete\":0,\"sdv\":false,\"locked\":false,\"signed\":false}],\"_links\":{\"self\":{\"href\":\"https:\\/\\/data.castoredc.com\\/api\\/study\\/AFE56D62-0797-406B-9949-DD8DC65D6A75\\/record-progress\\/steps\"}}},{\"record_id\":\"110020\",\"steps\":[{\"step_id\":\"D7AFCBA2-86E0-4312-B7D2-68894CE7E421\",\"complete\":0,\"sdv\":false,\"locked\":false,\"signed\":false},{\"step_id\":\"0D221733-7D1E-4920-8475-DA60CF4B989C\",\"complete\":0,\"sdv\":false,\"locked\":false,\"signed\":false},{\"step_id\":\"6784D9FF-F359-4E47-B6AF-9CE44B947759\",\"complete\":0,\"sdv\":false,\"locked\":false,\"signed\":false},{\"step_id\":\"494D8D96-9607-40C6-B4E9-CAFF4A55B16C\",\"complete\":0,\"sdv\":false,\"locked\":false,\"signed\":false},{\"step_id\":\"0EB1BFD1-BF99-4FA0-8FC5-A3ED7F81510C\",\"complete\":0,\"sdv\":false,\"locked\":false,\"signed\":false},{\"step_id\":\"F30F5553-CFFF-4265-A423-20765DEB366E\",\"complete\":0,\"sdv\":false,\"locked\":false,\"signed\":false},{\"step_id\":\"3334E775-17B5-49ED-8D91-6C34DE3A07F5\",\"complete\":0,\"sdv\":false,\"locked\":false,\"signed\":false}],\"_links\":{\"self\":{\"href\":\"https:\\/\\/data.castoredc.com\\/api\\/study\\/AFE56D62-0797-406B-9949-DD8DC65D6A75\\/record-progress\\/steps\"}}},{\"record_id\":\"110021\",\"steps\":[{\"step_id\":\"494D8D96-9607-40C6-B4E9-CAFF4A55B16C\",\"complete\":0,\"sdv\":false,\"locked\":false,\"signed\":false},{\"step_id\":\"0EB1BFD1-BF99-4FA0-8FC5-A3ED7F81510C\",\"complete\":0,\"sdv\":false,\"locked\":false,\"signed\":false},{\"step_id\":\"F30F5553-CFFF-4265-A423-20765DEB366E\",\"complete\":0,\"sdv\":false,\"locked\":false,\"signed\":false},{\"step_id\":\"3334E775-17B5-49ED-8D91-6C34DE3A07F5\",\"complete\":0,\"sdv\":false,\"locked\":false,\"signed\":false},{\"step_id\":\"D7AFCBA2-86E0-4312-B7D2-68894CE7E421\",\"complete\":0,\"sdv\":false,\"locked\":false,\"signed\":false},{\"step_id\":\"0D221733-7D1E-4920-8475-DA60CF4B989C\",\"complete\":0,\"sdv\":false,\"locked\":false,\"signed\":false},{\"step_id\":\"6784D9FF-F359-4E47-B6AF-9CE44B947759\",\"complete\":0,\"sdv\":false,\"locked\":false,\"signed\":false}],\"_links\":{\"self\":{\"href\":\"https:\\/\\/data.castoredc.com\\/api\\/study\\/AFE56D62-0797-406B-9949-DD8DC65D6A75\\/record-progress\\/steps\"}}}]},\"page_count\":21,\"page_size\":25,\"total_items\":504,\"page\":1}",
      "status_code": 200,
      "type": "ok"
    }
  }
]
