[
  {
    "request": {
      "body": "",
      "headers": {
        "Accept": "application/json",
        "Authorization": "Bearer supersecretaccesstoken",
        "Content-Type": "application/json"
      },
      "method": "get",
      "request_body": "",
      "url": "https://data.castoredc.com/api/study/500475BC-F67A-41FD-A07D-4FF7C13756C8/field"
    },
    "response": {
      "binary": false,
      "body": "{\"_links\":{\"self\":{\"href\":\"https:\\/\\/data.castoredc.com\\/api\\/study\\/500475BC-F67A-41FD-A07D-4FF7C13756C8\\/field?page=1\"},\"first\":{\"href\":\"https:\\/\\/data.castoredc.com\\/api\\/study\\/500475BC-F67A-41FD-A07D-4FF7C13756C8\\/field\"},\"last\":{\"href\":\"https:\\/\\/data.castoredc.com\\/api\\/study\\/500475BC-F67A-41FD-A07D-4FF7C13756C8\\/field?page=5\"},\"next\":{\"href\":\"https:\\/\\/data.castoredc.com\\/api\\/study\\/500475BC-F67A-41FD-A07D-4FF7C13756C8\\/field?page=2\"}},\"_embedded\":{\"fields\":[{\"id\":\"03511032-AD02-43F3-8AC8-238C18801ACB\",\"parent_id\":\"CEC4791D-A426-4151-9E8A-3226C8534B8D\",\"field_id\":\"03511032-AD02-43F3-8AC8-238C18801ACB\",\"field_number\":5,\"field_label\":\"BMI\",\"field_variable_name\":\"pat_bmi\",\"field_type\":\"calculation\",\"field_required\":0,\"field_hidden\":0,\"field_info\":\"\",\"field_units\":\"\",\"field_min\":null,\"field_min_label\":\"\",\"field_max\":null,\"field_max_label\":\"\",\"field_enforce_decimals\":null,\"field_summary_template\":\"({pat_weight} \\/ ({pat_height}*{pat_height}))*10000\",\"field_slider_step\":null,\"field_image\":\"\",\"report_id\":\"\",\"field_length\":null,\"additional_config\":\"\",\"exclude_on_data_export\":false,\"option_group\":null,\"metadata_points\":[],\"validations\":[],\"dependency_parents\":[],\"dependency_children\":[],\"_links\":{\"self\":{\"href\":\"https:\\/\\/data.castoredc.com\\/api\\/study\\/500475BC-F67A-41FD-A07D-4FF7C13756C8\\/field\\/03511032-AD02-43F3-8AC8-238C18801ACB\"}}},{\"id\":\"049146F6-8611-41C5-A5EF-2C971B6DC8F8\",\"parent_id\":\"82D5FE07-938E-41BA-A4A9-22A2DB34529C\",\"field_id\":\"049146F6-8611-41C5-A5EF-2C971B6DC8F8\",\"field_number\":1,\"field_label\":\"Date of blood sample\",\"field_variable_name\":\"unslab_date\",\"field_type\":\"date\",\"field_required\":0,\"field_hidden\":0,\"field_info\":\"\",\"field_units\":\"\",\"field_min\":null,\"field_min_label\":\"\",\"field_max\":null,\"field_max_label\":\"\",\"field_enforce_decimals\":null,\"field_summary_template\":\"\",\"field_slider_step\":null,\"field_image\":\"\",\"report_id\":\"\",\"field_length\":null,\"additional_config\":\"\",\"exclude_on_data_export\":false,\"option_group\":null,\"metadata_points\":[],\"validations\":[],\"dependency_parents\":[],\"dependency_children\":[],\"_links\":{\"self\":{\"href\":\"https:\\/\\/data.castoredc.com\\/api\\/study\\/500475BC-F67A-41FD-A07D-4FF7C13756C8\\/field\\/049146F6-8611-41C5-A5EF-2C971B6DC8F8\"}}},{\"id\":\"056D86C0-9A95-4E07-8BE2-26527C7667A7\",\"parent_id\":\"8D1C2952-8EDF-4C8E-8FB5-6BCB9E60BE11\",\"field_id\":\"056D86C0-9A95-4E07-8BE2-26527C7667A7\",\"field_number\":2,\"field_label\":\"Date of death\",\"field_variable_name\":\"death_date\",\"field_type\":\"date\",\"field_required\":0,\"field_hidden\":0,\"field_info\":\"Enter date of death\",\"field_units\":\"\",\"field_min\":null,\"field_min_label\":\"\",\"field_max\":null,\"field_max_label\":\"\",\"field_enforce_decimals\":null,\"field_summary_template\":\"\",\"field_slider_step\":null,\"field_image\":\"\",\"report_id\":\"\",\"field_length\":null,\"additional_config\":\"\",\"exclude_on_data_export\":false,\"option_group\":null,\"metadata_points\":[],\"validations\":[],\"dependency_parents\":[],\"dependency_children\":[],\"_links\":{\"self\":{\"href\":\"https:\\/\\/data.castoredc.com\\/api\\/study\\/500475BC-F67A-41FD-A07D-4FF7C13756C8\\/field\\/056D86C0-9A95-4E07-8BE2-26527C7667A7\"}}},{\"id\":\"074E2CC3-15E1-4E75-B992-09A9EFA1DD80\",\"parent_id\":\"59886D21-8F2F-4065-972D-54D72C9C1C8C\",\"field_id\":\"074E2CC3-15E1-4E75-B992-09A9EFA1DD80\",\"field_number\":7,\"field_label\":\"Report Adverse Event\",\"field_variable_name\":null,\"field_type\":\"add_report_button\",\"field_required\":0,\"field_hidden\":0,\"field_info\":\"\",\"field_units\":\"\",\"field_min\":null,\"field_min_label\":\"\",\"field_max\":null,\"field_max_label\":\"\",\"field_enforce_decimals\":null,\"field_summary_template\":\"\",\"field_slider_step\":null,\"field_image\":\"\",\"report_id\":\"50D86984-A68F-4C89-A53D-41B40AC73C1B\",\"field_length\":null,\"additional_config\":\"\",\"exclude_on_data_export\":false,\"option_group\":null,\"metadata_points\":[],\"validations\":[],\"dependency_parents\":[],\"dependency_children\":[],\"_links\":{\"self\":{\"href\":\"https:\\/\\/data.castoredc.com\\/api\\/study\\/500475BC-F67A-41FD-A07D-4FF7C13756C8\\/field\\/074E2CC3-15E1-4E75-B992-09A9EFA1DD80\"}}},{\"id\":\"07EF5531-71BB-45E5-A685-C9E85A1C3FD9\",\"parent_id\":\"93819F3F-F0FC-4263-B499-44CE356198B3\",\"field_id\":\"07EF5531-71BB-45E5-A685-C9E85A1C3FD9\",\"field_number\":15,\"field_label\":\"Cut down the amount of time you spent on work or other activities\",\"field_variable_name\":\"sf36_4a\",\"field_type\":\"radio\",\"field_required\":1,\"field_hidden\":0,\"field_info\":\"\",\"field_units\":\"\",\"field_min\":null,\"field_min_label\":\"\",\"field_max\":null,\"field_max_label\":\"\",\"field_enforce_decimals\":null,\"field_summary_template\":\"\",\"field_slider_step\":null,\"field_image\":\"\",\"report_id\":\"\",\"field_length\":null,\"additional_config\":\"\",\"exclude_on_data_export\":false,\"option_group\":null,\"metadata_points\":[],\"validations\":[],\"dependency_parents\":[],\"dependency_children\":[],\"_links\":{\"self\":{\"href\":\"https:\\/\\/data.castoredc.com\\/api\\/study\\/500475BC-F67A-41FD-A07D-4FF7C13756C8\\/field\\/07EF5531-71BB-45E5-A685-C9E85A1C3FD9\"}}},{\"id\":\"09F11A78-74F1-479B-885D-0229F7D3F825\",\"parent_id\":\"EB187F49-39EC-4991-B8A3-6B9AA3BCDB68\",\"field_id\":\"09F11A78-74F1-479B-885D-0229F7D3F825\",\"field_number\":6,\"field_label\":\"Action taken regarding intervention\",\"field_variable_name\":\"AE_action\",\"field_type\":\"radio\",\"field_required\":1,\"field_hidden\":0,\"field_info\":\"\",\"field_units\":\"\",\"field_min\":null,\"field_min_label\":\"\",\"field_max\":null,\"field_max_label\":\"\",\"field_enforce_decimals\":null,\"field_summary_template\":\"\",\"field_slider_step\":null,\"field_image\":\"\",\"report_id\":\"\",\"field_length\":null,\"additional_config\":\"\",\"exclude_on_data_export\":false,\"option_group\":null,\"metadata_points\":[],\"validations\":[],\"dependency_parents\":[],\"dependency_children\":[],\"_links\":{\"self\":{\"href\":\"https:\\/\\/data.castoredc.com\\/api\\/study\\/500475BC-F67A-41FD-A07D-4FF7C13756C8\\/field\\/09F11A78-74F1-479B-885D-0229F7D3F825\"}}},{\"id\":\"149F1454-0C03-4D2A-9B5C-42CED52E05A9\",\"parent_id\":\"82D5FE07-938E-41BA-A4A9-22A2DB34529C\",\"field_id\":\"149F1454-0C03-4D2A-9B5C-42CED52E05A9\",\"field_number\":4,\"field_label\":\"Blood white blood cell count\",\"field_variable_name\":\"unslab_leucoc\",\"field_type\":\"numeric\",\"field_required\":0,\"field_hidden\":0,\"field_info\":\"\",\"field_units\":\"*10^9\\/L\",\"field_min\":null,\"field_min_label\":\"\",\"field_max\":null,\"field_max_label\":\"\",\"field_enforce_decimals\":null,\"field_summary_template\":\"\",\"field_slider_step\":null,\"field_image\":\"\",\"report_id\":\"\",\"field_length\":null,\"additional_config\":\"\",\"exclude_on_data_export\":false,\"option_group\":null,\"metadata_points\":[],\"validations\":[],\"dependency_parents\":[],\"dependency_children\":[],\"_links\":{\"self\":{\"href\":\"https:\\/\\/data.castoredc.com\\/api\\/study\\/500475BC-F67A-41FD-A07D-4FF7C13756C8\\/field\\/149F1454-0C03-4D2A-9B5C-42CED52E05A9\"}}},{\"id\":\"16D59F84-3595-443F-AA35-B04F11F22181\",\"parent_id\":\"EB187F49-39EC-4991-B8A3-6B9AA3BCDB68\",\"field_id\":\"16D59F84-3595-443F-AA35-B04F11F22181\",\"field_number\":8,\"field_label\":\"Expected?\",\"field_variable_name\":\"AE_expected\",\"field_type\":\"radio\",\"field_required\":1,\"field_hidden\":0,\"field_info\":\"\",\"field_units\":\"\",\"field_min\":null,\"field_min_label\":\"\",\"field_max\":null,\"field_max_label\":\"\",\"field_enforce_decimals\":null,\"field_summary_template\":\"\",\"field_slider_step\":null,\"field_image\":\"\",\"report_id\":\"\",\"field_length\":null,\"additional_config\":\"\",\"exclude_on_data_export\":false,\"option_group\":null,\"metadata_points\":[],\"validations\":[],\"dependency_parents\":[],\"dependency_children\":[],\"_links\":{\"self\":{\"href\":\"https:\\/\\/data.castoredc.com\\/api\\/study\\/500475BC-F67A-41FD-A07D-4FF7C13756C8\\/field\\/16D59F84-3595-443F-AA35-B04F11F22181\"}}},{\"id\":\"173AE2DD-EE5B-4401-B10E-E4B63ABF4B86\",\"parent_id\":\"93819F3F-F0FC-4263-B499-44CE356198B3\",\"field_id\":\"173AE2DD-EE5B-4401-B10E-E4B63ABF4B86\",\"field_number\":16,\"field_label\":\"Accomplished less than you would like\",\"field_variable_name\":\"sf36_4b\",\"field_type\":\"radio\",\"field_required\":1,\"field_hidden\":0,\"field_info\":\"\",\"field_units\":\"\",\"field_min\":null,\"field_min_label\":\"\",\"field_max\":null,\"field_max_label\":\"\",\"field_enforce_decimals\":null,\"field_summary_template\":\"\",\"field_slider_step\":null,\"field_image\":\"\",\"report_id\":\"\",\"field_length\":null,\"additional_config\":\"\",\"exclude_on_data_export\":false,\"option_group\":null,\"metadata_points\":[],\"validations\":[],\"dependency_parents\":[],\"dependency_children\":[],\"_links\":{\"self\":{\"href\":\"https:\\/\\/data.castoredc.com\\/api\\/study\\/500475BC-F67A-41FD-A07D-4FF7C13756C8\\/field\\/173AE2DD-EE5B-4401-B10E-E4B63ABF4B86\"}}},{\"id\":\"1C043DEF-2957-4F09-B850-62BC52CFD263\",\"parent_id\":\"93819F3F-F0FC-4263-B499-44CE356198B3\",\"field_id\":\"1C043DEF-2957-4F09-B850-62BC52CFD263\",\"field_number\":38,\"field_label\":\"How true or false is each of the following statements for you?\",\"field_variable_name\":null,\"field_type\":\"remark\",\"field_required\":0,\"field_hidden\":0,\"field_info\":\"\",\"field_units\":\"\",\"field_min\":null,\"field_min_label\":\"\",\"field_max\":null,\"field_max_label\":\"\",\"field_enforce_decimals\":null,\"field_summary_template\":\"\",\"field_slider_step\":null,\"field_image\":\"\",\"report_id\":\"\",\"field_length\":null,\"additional_config\":\"\",\"exclude_on_data_export\":false,\"option_group\":null,\"metadata_points\":[],\"validations\":[],\"dependency_parents\":[],\"dependency_children\":[],\"_links\":{\"self\":{\"href\":\"https:\\/\\/data.castoredc.com\\/api\\/study\\/500475BC-F67A-41FD-A07D-4FF7C13756C8\\/field\\/1C043DEF-2957-4F09-B850-62BC52CFD263\"}}},{\"id\":\"1DAA9654-0C3E-4864-8457-2A694407119D\",\"parent_id\":\"93819F3F-F0FC-4263-B499-44CE356198B3\",\"field_id\":\"1DAA9654-0C3E-4864-8457-2A694407119D\",\"field_number\":33,\"field_label\":\"Have you felt downhearted and blue?\",\"field_variable_name\":\"sf36_9f\",\"field_type\":\"radio\",\"field_required\":1,\"field_hidden\":0,\"field_info\":\"\",\"field_units\":\"\",\"field_min\":null,\"field_min_label\":\"\",\"field_max\":null,\"field_max_label\":\"\",\"field_enforce_decimals\":null,\"field_summary_template\":\"\",\"field_slider_step\":null,\"field_image\":\"\",\"report_id\":\"\",\"field_length\":null,\"additional_config\":\"\",\"exclude_on_data_export\":false,\"option_group\":null,\"metadata_points\":[],\"validations\":[],\"dependency_parents\":[],\"dependency_children\":[],\"_links\":{\"self\":{\"href\":\"https:\\/\\/data.castoredc.com\\/api\\/study\\/500475BC-F67A-41FD-A07D-4FF7C13756C8\\/field\\/1DAA9654-0C3E-4864-8457-2A694407119D\"}}},{\"id\":\"1ED982AF-AA47-4A0A-9678-23C7C457187C\",\"parent_id\":\"5CC7D2D8-7F1F-4E21-A79D-D11F86AF8027\",\"field_id\":\"1ED982AF-AA47-4A0A-9678-23C7C457187C\",\"field_number\":6,\"field_label\":\"Blood urea\",\"field_variable_name\":\"lab_urea\",\"field_type\":\"numeric\",\"field_required\":1,\"field_hidden\":0,\"field_info\":\"Blood urea concentration\",\"field_units\":\"mmol\\/l\",\"field_min\":null,\"field_min_label\":\"\",\"field_max\":null,\"field_max_label\":\"\",\"field_enforce_decimals\":null,\"field_summary_template\":\"\",\"field_slider_step\":null,\"field_image\":\"\",\"report_id\":\"\",\"field_length\":5,\"additional_config\":\"\",\"exclude_on_data_export\":false,\"option_group\":null,\"metadata_points\":[],\"validations\":[],\"dependency_parents\":[],\"dependency_children\":[],\"_links\":{\"self\":{\"href\":\"https:\\/\\/data.castoredc.com\\/api\\/study\\/500475BC-F67A-41FD-A07D-4FF7C13756C8\\/field\\/1ED982AF-AA47-4A0A-9678-23C7C457187C\"}}},{\"id\":\"2265F06E-2506-493A-BCD1-AA5D1B32ED0B\",\"parent_id\":\"EB187F49-39EC-4991-B8A3-6B9AA3BCDB68\",\"field_id\":\"2265F06E-2506-493A-BCD1-AA5D1B32ED0B\",\"field_number\":2,\"field_label\":\"Start date of adverse event\",\"field_variable_name\":\"AE_startdate\",\"field_type\":\"date\",\"field_required\":1,\"field_hidden\":0,\"field_info\":\"\",\"field_units\":\"\",\"field_min\":null,\"field_min_label\":\"\",\"field_max\":null,\"field_max_label\":\"\",\"field_enforce_decimals\":null,\"field_summary_template\":\"\",\"field_slider_step\":null,\"field_image\":\"\",\"report_id\":\"\",\"field_length\":null,\"additional_config\":\"\",\"exclude_on_data_export\":false,\"option_group\":null,\"metadata_points\":[],\"validations\":[],\"dependency_parents\":[],\"dependency_children\":[],\"_links\":{\"self\":{\"href\":\"https:\\/\\/data.castoredc.com\\/api\\/study\\/500475BC-F67A-41FD-A07D-4FF7C13756C8\\/field\\/2265F06E-2506-493A-BCD1-AA5D1B32ED0B\"}}},{\"id\":\"2A8F2D2B-21E7-4996-BFDD-64193F10BE6B\",\"parent_id\":\"991C617F-3FFA-45BA-921D-8CF91E294B80\",\"field_id\":\"2A8F2D2B-21E7-4996-BFDD-64193F10BE6B\",\"field_number\":5,\"field_label\":\"Heart rate\",\"field_variable_name\":\"clin_hr\",\"field_type\":\"numeric\",\"field_required\":1,\"field_hidden\":0,\"field_info\":\"Heart rate in beats per minute\",\"field_units\":\"Beats per minute\",\"field_min\":10,\"field_min_label\":\"\",\"field_max\":220,\"field_max_label\":\"\",\"field_enforce_decimals\":null,\"field_summary_template\":\"\",\"field_slider_step\":null,\"field_image\":\"\",\"report_id\":\"\",\"field_length\":5,\"additional_config\":\"\",\"exclude_on_data_export\":false,\"option_group\":null,\"metadata_points\":[],\"validations\":[],\"dependency_parents\":[],\"dependency_children\":[],\"_links\":{\"self\":{\"href\":\"https:\\/\\/data.castoredc.com\\/api\\/study\\/500475BC-F67A-41FD-A07D-4FF7C13756C8\\/field\\/2A8F2D2B-21E7-4996-BFDD-64193F10BE6B\"}}},{\"id\":\"2A939ABB-78B5-47D6-AF4C-190AC18AF9C2\",\"parent_id\":\"93819F3F-F0FC-4263-B499-44CE356198B3\",\"field_id\":\"2A939ABB-78B5-47D6-AF4C-190AC18AF9C2\",\"field_number\":30,\"field_label\":\"Have you felt so down in the dumps that nothing could cheer you up?\",\"field_variable_name\":\"sf36_9c\",\"field_type\":\"radio\",\"field_required\":1,\"field_hidden\":0,\"field_info\":\"\",\"field_units\":\"\",\"field_min\":null,\"field_min_label\":\"\",\"field_max\":null,\"field_max_label\":\"\",\"field_enforce_decimals\":null,\"field_summary_template\":\"\",\"field_slider_step\":null,\"field_image\":\"\",\"report_id\":\"\",\"field_length\":null,\"additional_config\":\"\",\"exclude_on_data_export\":false,\"option_group\":null,\"metadata_points\":[],\"validations\":[],\"dependency_parents\":[],\"dependency_children\":[],\"_links\":{\"self\":{\"href\":\"https:\\/\\/data.castoredc.com\\/api\\/study\\/500475BC-F67A-41FD-A07D-4FF7C13756C8\\/field\\/2A939ABB-78B5-47D6-AF4C-190AC18AF9C2\"}}},{\"id\":\"2AE0E50C-1694-4E41-840A-3A49FD5B6880\",\"parent_id\":\"93819F3F-F0FC-4263-B499-44CE356198B3\",\"field_id\":\"2AE0E50C-1694-4E41-840A-3A49FD5B6880\",\"field_number\":34,\"field_label\":\"Did you feel worn out?\",\"field_variable_name\":\"sf36_9g\",\"field_type\":\"radio\",\"field_required\":1,\"field_hidden\":0,\"field_info\":\"\",\"field_units\":\"\",\"field_min\":null,\"field_min_label\":\"\",\"field_max\":null,\"field_max_label\":\"\",\"field_enforce_decimals\":null,\"field_summary_template\":\"\",\"field_slider_step\":null,\"field_image\":\"\",\"report_id\":\"\",\"field_length\":null,\"additional_config\":\"\",\"exclude_on_data_export\":false,\"option_group\":null,\"metadata_points\":[],\"validations\":[],\"dependency_parents\":[],\"dependency_children\":[],\"_links\":{\"self\":{\"href\":\"https:\\/\\/data.castoredc.com\\/api\\/study\\/500475BC-F67A-41FD-A07D-4FF7C13756C8\\/field\\/2AE0E50C-1694-4E41-840A-3A49FD5B6880\"}}},{\"id\":\"2AFE9F1E-2114-48E5-A6E2-EB8FDD9F16DF\",\"parent_id\":\"82D5FE07-938E-41BA-A4A9-22A2DB34529C\",\"field_id\":\"2AFE9F1E-2114-48E5-A6E2-EB8FDD9F16DF\",\"field_number\":9,\"field_label\":\"Blood CRP\",\"field_variable_name\":\"unslab_CRP\",\"field_type\":\"numeric\",\"field_required\":0,\"field_hidden\":0,\"field_info\":\"\",\"field_units\":\"mg\\/L\",\"field_min\":null,\"field_min_label\":\"\",\"field_max\":null,\"field_max_label\":\"\",\"field_enforce_decimals\":null,\"field_summary_template\":\"\",\"field_slider_step\":null,\"field_image\":\"\",\"report_id\":\"\",\"field_length\":null,\"additional_config\":\"\",\"exclude_on_data_export\":false,\"option_group\":null,\"metadata_points\":[],\"validations\":[],\"dependency_parents\":[],\"dependency_children\":[],\"_links\":{\"self\":{\"href\":\"https:\\/\\/data.castoredc.com\\/api\\/study\\/500475BC-F67A-41FD-A07D-4FF7C13756C8\\/field\\/2AFE9F1E-2114-48E5-A6E2-EB8FDD9F16DF\"}}},{\"id\":\"2C24580E-4009-45E1-959D-6D02D42804C1\",\"parent_id\":\"93819F3F-F0FC-4263-B499-44CE356198B3\",\"field_id\":\"2C24580E-4009-45E1-959D-6D02D42804C1\",\"field_number\":27,\"field_label\":\"How much of the time during the past 4 weeks...\",\"field_variable_name\":null,\"field_type\":\"remark\",\"field_required\":0,\"field_hidden\":0,\"field_info\":\"\",\"field_units\":\"\",\"field_min\":null,\"field_min_label\":\"\",\"field_max\":null,\"field_max_label\":\"\",\"field_enforce_decimals\":null,\"field_summary_template\":\"\",\"field_slider_step\":null,\"field_image\":\"\",\"report_id\":\"\",\"field_length\":null,\"additional_config\":\"\",\"exclude_on_data_export\":false,\"option_group\":null,\"metadata_points\":[],\"validations\":[],\"dependency_parents\":[],\"dependency_children\":[],\"_links\":{\"self\":{\"href\":\"https:\\/\\/data.castoredc.com\\/api\\/study\\/500475BC-F67A-41FD-A07D-4FF7C13756C8\\/field\\/2C24580E-4009-45E1-959D-6D02D42804C1\"}}},{\"id\":\"2C8E6859-1A5C-45C2-96B3-1E6BAEA99374\",\"parent_id\":\"5CC7D2D8-7F1F-4E21-A79D-D11F86AF8027\",\"field_id\":\"2C8E6859-1A5C-45C2-96B3-1E6BAEA99374\",\"field_number\":7,\"field_label\":\"Blood creatinine\",\"field_variable_name\":\"lab_creat\",\"field_type\":\"numeric\",\"field_required\":1,\"field_hidden\":0,\"field_info\":\"Blood creatinine concentration\",\"field_units\":\"umol\\/l\",\"field_min\":30,\"field_min_label\":\"\",\"field_max\":1200,\"field_max_label\":\"\",\"field_enforce_decimals\":null,\"field_summary_template\":\"\",\"field_slider_step\":null,\"field_image\":\"\",\"report_id\":\"\",\"field_length\":5,\"additional_config\":\"\",\"exclude_on_data_export\":false,\"option_group\":null,\"metadata_points\":[],\"validations\":[],\"dependency_parents\":[],\"dependency_children\":[],\"_links\":{\"self\":{\"href\":\"https:\\/\\/data.castoredc.com\\/api\\/study\\/500475BC-F67A-41FD-A07D-4FF7C13756C8\\/field\\/2C8E6859-1A5C-45C2-96B3-1E6BAEA99374\"}}},{\"id\":\"30E6CAC1-631F-4DE7-918C-0AA15F57A8F0\",\"parent_id\":\"65AE9E36-BC5C-4707-B3FF-87EC56816B94\",\"field_id\":\"30E6CAC1-631F-4DE7-918C-0AA15F57A8F0\",\"field_number\":7,\"field_label\":\"Becoming easily annoyed or irritable?\",\"field_variable_name\":\"GAD7_annoyed_irritable\",\"field_type\":\"radio\",\"field_required\":1,\"field_hidden\":0,\"field_info\":\"\",\"field_units\":\"\",\"field_min\":null,\"field_min_label\":\"\",\"field_max\":null,\"field_max_label\":\"\",\"field_enforce_decimals\":null,\"field_summary_template\":\"\",\"field_slider_step\":null,\"field_image\":\"\",\"report_id\":\"\",\"field_length\":null,\"additional_config\":\"\",\"exclude_on_data_export\":false,\"option_group\":null,\"metadata_points\":[],\"validations\":[],\"dependency_parents\":[],\"dependency_children\":[],\"_links\":{\"self\":{\"href\":\"https:\\/\\/data.castoredc.com\\/api\\/study\\/500475BC-F67A-41FD-A07D-4FF7C13756C8\\/field\\/30E6CAC1-631F-4DE7-918C-0AA15F57A8F0\"}}},{\"id\":\"37B37AA1-03EA-4654-B297-D1E30160F6EC\",\"parent_id\":\"93819F3F-F0FC-4263-B499-44CE356198B3\",\"field_id\":\"37B37AA1-03EA-4654-B297-D1E30160F6EC\",\"field_number\":1,\"field_label\":\"In general, would you say your health is\",\"field_variable_name\":\"sf36_1\",\"field_type\":\"radio\",\"field_required\":1,\"field_hidden\":0,\"field_info\":\"\",\"field_units\":\"\",\"field_min\":null,\"field_min_label\":\"\",\"field_max\":null,\"field_max_label\":\"\",\"field_enforce_decimals\":null,\"field_summary_template\":\"\",\"field_slider_step\":null,\"field_image\":\"\",\"report_id\":\"\",\"field_length\":null,\"additional_config\":\"\",\"exclude_on_data_export\":false,\"option_group\":null,\"metadata_points\":[],\"validations\":[],\"dependency_parents\":[],\"dependency_children\":[],\"_links\":{\"self\":{\"href\":\"https:\\/\\/data.castoredc.com\\/api\\/study\\/500475BC-F67A-41FD-A07D-4FF7C13756C8\\/field\\/37B37AA1-03EA-4654-B297-D1E30160F6EC\"}}},{\"id\":\"39393F46-EA2A-4840-B9B3-9FC26CB66B97\",\"parent_id\":\"93819F3F-F0FC-4263-B499-44CE356198B3\",\"field_id\":\"39393F46-EA2A-4840-B9B3-9FC26CB66B97\",\"field_number\":10,\"field_label\":\"Walking more than a mile\",\"field_variable_name\":\"sf36_3g\",\"field_type\":\"radio\",\"field_required\":1,\"field_hidden\":0,\"field_info\":\"\",\"field_units\":\"\",\"field_min\":null,\"field_min_label\":\"\",\"field_max\":null,\"field_max_label\":\"\",\"field_enforce_decimals\":null,\"field_summary_template\":\"\",\"field_slider_step\":null,\"field_image\":\"\",\"report_id\":\"\",\"field_length\":null,\"additional_config\":\"\",\"exclude_on_data_export\":false,\"option_group\":null,\"metadata_points\":[],\"validations\":[],\"dependency_parents\":[],\"dependency_children\":[],\"_links\":{\"self\":{\"href\":\"https:\\/\\/data.castoredc.com\\/api\\/study\\/500475BC-F67A-41FD-A07D-4FF7C13756C8\\/field\\/39393F46-EA2A-4840-B9B3-9FC26CB66B97\"}}},{\"id\":\"3C3132F2-F22C-40AB-A008-29ABCEFF047D\",\"parent_id\":\"93819F3F-F0FC-4263-B499-44CE356198B3\",\"field_id\":\"3C3132F2-F22C-40AB-A008-29ABCEFF047D\",\"field_number\":41,\"field_label\":\"I expect my health to get worse\",\"field_variable_name\":\"sf36_11c\",\"field_type\":\"radio\",\"field_required\":1,\"field_hidden\":0,\"field_info\":\"\",\"field_units\":\"\",\"field_min\":null,\"field_min_label\":\"\",\"field_max\":null,\"field_max_label\":\"\",\"field_enforce_decimals\":null,\"field_summary_template\":\"\",\"field_slider_step\":null,\"field_image\":\"\",\"report_id\":\"\",\"field_length\":null,\"additional_config\":\"\",\"exclude_on_data_export\":false,\"option_group\":null,\"metadata_points\":[],\"validations\":[],\"dependency_parents\":[],\"dependency_children\":[],\"_links\":{\"self\":{\"href\":\"https:\\/\\/data.castoredc.com\\/api\\/study\\/500475BC-F67A-41FD-A07D-4FF7C13756C8\\/field\\/3C3132F2-F22C-40AB-A008-29ABCEFF047D\"}}},{\"id\":\"3CB8F5BA-398A-49E9-8B9D-3E73ADAB7815\",\"parent_id\":\"8D1C2952-8EDF-4C8E-8FB5-6BCB9E60BE11\",\"field_id\":\"3CB8F5BA-398A-49E9-8B9D-3E73ADAB7815\",\"field_number\":3,\"field_label\":\"Date lost to follow-up\",\"field_variable_name\":\"ltfu_date\",\"field_type\":\"date\",\"field_required\":0,\"field_hidden\":0,\"field_info\":\"Last know follow-up date\",\"field_units\":\"\",\"field_min\":null,\"field_min_label\":\"\",\"field_max\":null,\"field_max_label\":\"\",\"field_enforce_decimals\":null,\"field_summary_template\":\"\",\"field_slider_step\":null,\"field_image\":\"\",\"report_id\":\"\",\"field_length\":null,\"additional_config\":\"\",\"exclude_on_data_export\":false,\"option_group\":null,\"metadata_points\":[],\"validations\":[],\"dependency_parents\":[],\"dependency_children\":[],\"_links\":{\"self\":{\"href\":\"https:\\/\\/data.castoredc.com\\/api\\/study\\/500475BC-F67A-41FD-A07D-4FF7C13756C8\\/field\\/3CB8F5BA-398A-49E9-8B9D-3E73ADAB7815\"}}},{\"id\":\"4282728F-D112-4F96-99E2-2DDDFF012EC4\",\"parent_id\":\"93819F3F-F0FC-4263-B499-44CE356198B3\",\"field_id\":\"4282728F-D112-4F96-99E2-2DDDFF012EC4\",\"field_number\":32,\"field_label\":\"Did you have a lot of energy?\",\"field_variable_name\":\"sf36_9e\",\"field_type\":\"radio\",\"field_required\":1,\"field_hidden\":0,\"field_info\":\"\",\"field_units\":\"\",\"field_min\":null,\"field_min_label\":\"\",\"field_max\":null,\"field_max_label\":\"\",\"field_enforce_decimals\":null,\"field_summary_template\":\"\",\"field_slider_step\":null,\"field_image\":\"\",\"report_id\":\"\",\"field_length\":null,\"additional_config\":\"\",\"exclude_on_data_export\":false,\"option_group\":null,\"metadata_points\":[],\"validations\":[],\"dependency_parents\":[],\"dependency_children\":[],\"_links\":{\"self\":{\"href\":\"https:\\/\\/data.castoredc.com\\/api\\/study\\/500475BC-F67A-41FD-A07D-4FF7C13756C8\\/field\\/4282728F-D112-4F96-99E2-2DDDFF012EC4\"}}}]},\"page_count\":5,\"page_size\":25,\"total_items\":124,\"page\":1}",
      "status_code": 200,
      "type": "ok"
    }
  }
]
